{
  "id":"chatter",
  "name":"Combat Chatter",
  "author":"Histidine",
  "version":"1.9.4",
  "utility":true,
  "description":"talky-man broke thog's tusk. TALKY-MAN BROKE THOG'S TUSK!!\n\nRequires LazyLib",
  "gameVersion":"0.9.1a",
  "jars":["jars/CombatChatter.jar"],
  "modPlugin":"org.histidine.chatter.scripts.ChatterModPlugin",
}